How to use flipR • flipR
…
invert_col(iris, "DT")
#>        Species Petal.Width Petal.Length Sepal.Width Sepal.Length
#>   1:    setosa         0.2          1.4         3.5          5.1
#>   2:    setosa         0.2          1.4         3.0          4.9
#>   3:    setosa         0.2          1.3         3.2          4.7
#>   4:    setosa         0.2          1.5         3.1          4.6
#>   5:    setosa         0.2          1.4         3.6          5.0
#>  ---                                                            
#> 146: virginica         2.3          5.2         3.0          6.7
#> 147: virginica         1.9          5.0         2.5          6.3
#> 148: virginica         2.0          5.2         3.0          6.5
#> 149: virginica         2.3          5.4         3.4          6.2
#> 150: virginica         1.8          5.1         3.0          5.9
invert_row(iris, "TB")
#> # A tibble: 150 x 5
#>    Sepal.Length Sepal.Width Petal.Length Petal.Width Species  
#>           <dbl>       <dbl>        <dbl>       <dbl> <fct>    
#>  1          5.9         3            5.1         1.8 virginica
#>  2          6.2         3.4          5.4         2.3 virginica
#>  3          6.5         3            5.2         2   virginica
#>  4          6.3         2.5          5           1.9 virginica
#>  5          6.7         3            5.2         2.3 virginica
#>  6          6.7         3.3          5.7         2.5 virginica
#>  7          6.8         3.2          5.9         2.3 virginica
#>  8          5.8         2.7          5.1         1.9 virginica
#>  9          6.9         3.1          5.1         2.3 virginica
#> 10          6.7         3.1          5.6         2.4 virginica
#> # ... with 140 more rows
…
