Inverting data frame columns. — invert_col • flipR
…
#> Toyota Corolla         1    4  1  1 19.90 1.835 4.22  65  71.1   4 33.9
#> Toyota Corona          1    3  0  1 20.01 2.465 3.70  97 120.1   4 21.5
#> Dodge Challenger       2    3  0  0 16.87 3.520 2.76 150 318.0   8 15.5
#> AMC Javelin            2    3  0  0 17.30 3.435 3.15 150 304.0   8 15.2
#> Camaro Z28             4    3  0  0 15.41 3.840 3.73 245 350.0   8 13.3
#> Pontiac Firebird       2    3  0  0 17.05 3.845 3.08 175 400.0   8 19.2
#> Fiat X1-9              1    4  1  1 18.90 1.935 4.08  66  79.0   4 27.3
#> Porsche 914-2          2    5  1  0 16.70 2.140 4.43  91 120.3   4 26.0
#> Lotus Europa           2    5  1  1 16.90 1.513 3.77 113  95.1   4 30.4
#> Ford Pantera L         4    5  1  0 14.50 3.170 4.22 264 351.0   8 15.8
#> Ferrari Dino           6    5  1  0 15.50 2.770 3.62 175 145.0   6 19.7
#> Maserati Bora          8    5  1  0 14.60 3.570 3.54 335 301.0   8 15.0
#> Volvo 142E             2    4  1  1 18.60 2.780 4.11 109 121.0   4 21.4
invert_col(mtcars, "TB")
#> # A tibble: 32 x 11
#>     carb  gear    am    vs  qsec    wt  drat    hp  disp   cyl   mpg
#>    <dbl> <dbl> <dbl> <dbl> <dbl> <dbl> <dbl> <dbl> <dbl> <dbl> <dbl>
#>  1     4     4     1     0  16.5  2.62  3.9    110  160      6  21  
#>  2     4     4     1     0  17.0  2.88  3.9    110  160      6  21  
#>  3     1     4     1     1  18.6  2.32  3.85    93  108      4  22.8
#>  4     1     3     0     1  19.4  3.22  3.08   110  258      6  21.4
#>  5     2     3     0     0  17.0  3.44  3.15   175  360      8  18.7
#>  6     1     3     0     1  20.2  3.46  2.76   105  225      6  18.1
#>  7     4     3     0     0  15.8  3.57  3.21   245  360      8  14.3
#>  8     2     4     0     1  20    3.19  3.69    62  147.     4  24.4
#>  9     2     4     0     1  22.9  3.15  3.92    95  141.     4  22.8
#> 10     4     4     0     1  18.3  3.44  3.92   123  168.     6  19.2
#> # ... with 22 more rows
…
